\relax 
\providecommand\hyper@newdestlabel[2]{}
\providecommand\HyperFirstAtBeginDocument{\AtBeginDocument}
\HyperFirstAtBeginDocument{\ifx\hyper@anchor\@undefined
\global\let\oldcontentsline\contentsline
\gdef\contentsline#1#2#3#4{\oldcontentsline{#1}{#2}{#3}}
\global\let\oldnewlabel\newlabel
\gdef\newlabel#1#2{\newlabelxx{#1}#2}
\gdef\newlabelxx#1#2#3#4#5#6{\oldnewlabel{#1}{{#2}{#3}}}
\AtEndDocument{\ifx\hyper@anchor\@undefined
\let\contentsline\oldcontentsline
\let\newlabel\oldnewlabel
\fi}
\fi}
\global\let\hyper@last\relax 
\gdef\HyperFirstAtBeginDocument#1{#1}
\providecommand\HyField@AuxAddToFields[1]{}
\providecommand\HyField@AuxAddToCoFields[2]{}
\orcidauthor{0000-0001-5174-0285}{Massimiliano Porzio~\href {https://orcid.org/0000-0001-5174-0285}{\includegraphics [height=\fontcharht \font `X]{orcid.png}}}
\csgdef{mark@corau1}{1}
\emailauthor{massimiliano.porzio@gmail.com}{Massimiliano Porzio~\href {https://orcid.org/0000-0001-5174-0285}{\includegraphics [height=\fontcharht \font `X]{orcid.png}}}
\creditauthor{Conceptualization of this work, Methodology, Software development, Original draft preparation}{Massimiliano Porzio~\href {https://orcid.org/0000-0001-5174-0285}{\includegraphics [height=\fontcharht \font `X]{orcid.png}}}
\creditauthor{Software tests, Original draft preparation}{Anastasios C Konstantinidis}
\NewLabel{cor1}{1}
\citation{Reis2013}
\citation{Guidelines2006}
\citation{supplement2013,updates2017}
\citation{Gennaro2018}
\citation{VanEngen2018}
\citation{Reis2013}
\citation{Donini2014}
\citation{OBJ}
\citation{iqworks}
\citation{DRIQ}
\citation{Zhang2017}
\citation{nccpmCDMAM}
\citation{artinis}
\@writefile{toc}{\contentsline {section}{\numberline {1}Introduction}{1}{section.1}\protected@file@percent }
\citation{Schneider2012}
\citation{dataset}
\citation{dataset}
\citation{dataset}
\citation{supplement2013,VanEngen2018}
\@writefile{toc}{\contentsline {section}{\numberline {2}Material and Methods}{2}{section.2}\protected@file@percent }
\newlabel{methods}{{2}{2}{Material and Methods}{section.2}{}}
\newlabel{methods@cref}{{[section][2][]2}{[1][2][]2}}
\newlabel{refROI}{{2.0.1}{2}{Reference ROI}{subsubsection.2.0.1}{}}
\newlabel{refROI@cref}{{[subsubsection][1][2,0]2.0.1}{[1][2][]2}}
\@writefile{toc}{\contentsline {subsubsection}{\numberline {2.0.1}Reference ROI }{2}{subsubsection.2.0.1}\protected@file@percent }
\newlabel{CDCOM_note}{{1}{2}{Material and Methods}{section.2}{}}
\newlabel{CDCOM_note@cref}{{[footnote][1][]1}{[1][2][]2}}
\citation{dataset}
\citation{Guidelines2006,supplement2013,updates2017}
\citation{Gennaro2018}
\citation{VanEngen2018}
\citation{Gennaro2018}
\gdef \LT@i {\LT@entry 
    {5}{159.52797pt}\LT@entry 
    {1}{136.568pt}\LT@entry 
    {1}{79.92pt}\LT@entry 
    {1}{71.552pt}}
\newlabel{tests}{{2.0.2}{3}{Summary of MAMMO\_QC tests}{subsubsection.2.0.2}{}}
\newlabel{tests@cref}{{[subsubsection][2][2,0]2.0.2}{[1][3][]3}}
\@writefile{toc}{\contentsline {subsubsection}{\numberline {2.0.2}Summary of MAMMO\_QC tests }{3}{subsubsection.2.0.2}\protected@file@percent }
\@writefile{lot}{\contentsline {table}{\numberline {1}{\ignorespaces Tests for which MAMMO\_QC can be useful. N/A corresponds to parameters not included in the protocol \relax }}{3}{table.1}\protected@file@percent }
\newlabel{efompIQ}{{3}{3}{Summary of MAMMO\_QC tests}{table.1}{}}
\newlabel{efompIQ@cref}{{[footnote][3][]3}{[1][3][]3}}
\newlabel{DQE_EFOMP}{{4}{3}{Summary of MAMMO\_QC tests}{table.1}{}}
\newlabel{DQE_EFOMP@cref}{{[footnote][4][]4}{[1][3][]3}}
\citation{Rampado2006}
\citation{Rampado2006}
\citation{Samei98,Bradford,Stierstorfer}
\@writefile{toc}{\contentsline {subsection}{\numberline {2.1}Description of Utilities and General plugins}{4}{subsection.2.1}\protected@file@percent }
\newlabel{Utilities}{{2.1}{4}{Description of Utilities and General plugins}{subsection.2.1}{}}
\newlabel{Utilities@cref}{{[subsection][1][2]2.1}{[1][3][]4}}
\@writefile{toc}{\contentsline {subsubsection}{\numberline {2.1.1}Sort by Acquisition Time and Sort by Slice}{4}{subsubsection.2.1.1}\protected@file@percent }
\@writefile{toc}{\contentsline {subsubsection}{\numberline {2.1.2}AGD from Header}{4}{subsubsection.2.1.2}\protected@file@percent }
\@writefile{toc}{\contentsline {subsubsection}{\numberline {2.1.3}DR --- Bad Pixel Map}{4}{subsubsection.2.1.3}\protected@file@percent }
\@writefile{toc}{\contentsline {subsubsection}{\numberline {2.1.4}Response Function}{4}{subsubsection.2.1.4}\protected@file@percent }
\newlabel{resp_fun}{{2.1.4}{4}{Response Function}{subsubsection.2.1.4}{}}
\newlabel{resp_fun@cref}{{[subsubsection][4][2,1]2.1.4}{[1][4][]4}}
\@writefile{toc}{\contentsline {subsubsection}{\numberline {2.1.5}Noise evaluation}{4}{subsubsection.2.1.5}\protected@file@percent }
\newlabel{noise}{{2.1.5}{4}{Noise evaluation}{subsubsection.2.1.5}{}}
\newlabel{noise@cref}{{[subsubsection][5][2,1]2.1.5}{[1][4][]4}}
\newlabel{eq_noise}{{1}{4}{Noise evaluation}{equation.2.1}{}}
\newlabel{eq_noise@cref}{{[equation][1][]1}{[1][4][]4}}
\@writefile{toc}{\contentsline {subsubsection}{\numberline {2.1.6}AEC --- Long Term}{4}{subsubsection.2.1.6}\protected@file@percent }
\newlabel{longterm}{{2.1.6}{4}{AEC --- Long Term}{subsubsection.2.1.6}{}}
\newlabel{longterm@cref}{{[subsubsection][6][2,1]2.1.6}{[1][4][]4}}
\@writefile{toc}{\contentsline {subsubsection}{\numberline {2.1.7}DR --- Local Dense Area}{4}{subsubsection.2.1.7}\protected@file@percent }
\citation{IEC2007}
\citation{supplement2013,IEC2007}
\citation{Konstantinidis}
\citation{eurefCDCOM}
\citation{supplement2013,VanEngen2018}
\@writefile{lof}{\contentsline {figure}{\numberline {1}{\ignorespaces cap for mtf edge}}{5}{figure.caption.1}\protected@file@percent }
\providecommand*\caption@xref[2]{\@setref\relax\@undefined{#1}}
\newlabel{fig:MTFEdge}{{1}{5}{cap for mtf edge}{figure.caption.1}{}}
\newlabel{fig:MTFEdge@cref}{{[figure][1][]1}{[1][5][]5}}
\@writefile{toc}{\contentsline {subsubsection}{\numberline {2.1.8}MTF --- Edge pMTF}{5}{subsubsection.2.1.8}\protected@file@percent }
\newlabel{MTF_edge}{{2.1.8}{5}{MTF --- Edge pMTF}{subsubsection.2.1.8}{}}
\newlabel{MTF_edge@cref}{{[subsubsection][8][2,1]2.1.8}{[1][4][]5}}
\newlabel{DQE}{{2.1.9}{5}{DQE}{subsubsection.2.1.9}{}}
\newlabel{DQE@cref}{{[subsubsection][9][2,1]2.1.9}{[1][5][]5}}
\@writefile{toc}{\contentsline {subsubsection}{\numberline {2.1.9}DQE}{5}{subsubsection.2.1.9}\protected@file@percent }
\@writefile{toc}{\contentsline {subsubsection}{\numberline {2.1.10}CDMAM Analysis}{5}{subsubsection.2.1.10}\protected@file@percent }
\newlabel{cdmam}{{2.1.10}{5}{CDMAM Analysis}{subsubsection.2.1.10}{}}
\newlabel{cdmam@cref}{{[subsubsection][10][2,1]2.1.10}{[1][5][]5}}
\newlabel{fluctuation}{{5}{5}{MTF --- Edge pMTF}{subsubsection.2.1.8}{}}
\newlabel{fluctuation@cref}{{[footnote][5][]5}{[1][4][]5}}
\citation{supplement2013,Gennaro2018}
\@writefile{lof}{\contentsline {figure}{\numberline {2}{\ignorespaces cap for dqe}}{6}{figure.caption.2}\protected@file@percent }
\newlabel{fig:DQE}{{2}{6}{cap for dqe}{figure.caption.2}{}}
\newlabel{fig:DQE@cref}{{[figure][2][]2}{[1][5][]6}}
\newlabel{CDMAM_a}{{3a}{6}{\relax }{figure.caption.3}{}}
\newlabel{CDMAM_a@cref}{{[subfigure][1][3]3a}{[1][6][]6}}
\newlabel{sub@CDMAM_a}{{a}{6}{\relax }{figure.caption.3}{}}
\newlabel{sub@CDMAM_a@cref}{{[subfigure][1][3]3a}{[1][6][]6}}
\newlabel{CDMAM_b}{{3b}{6}{\relax }{figure.caption.3}{}}
\newlabel{CDMAM_b@cref}{{[subfigure][2][3]3b}{[1][6][]6}}
\newlabel{sub@CDMAM_b}{{b}{6}{\relax }{figure.caption.3}{}}
\newlabel{sub@CDMAM_b@cref}{{[subfigure][2][3]3b}{[1][6][]6}}
\@writefile{lof}{\contentsline {figure}{\numberline {3}{\ignorespaces \rm  \scriptsize  \textbf  {a)} Output of a typical CDMAM 4.0 test tool analysis. A smoothed detection matrix is shown at the top panel. Next, two tables present a detailed and a summary report of the computed thresholds (the summary table presents values by using row colours according to achievable and acceptable values comparison). Finally, fitted psychometric curve (horizontal line marks the 62.5\% threshold) and human predicted Contrast--Detail curve are displayed at the bottom of the results window. \textbf  {b)} Examples of the Excel file created with the results of a CDMAM 4.0 test tool analysis (obtained from the matrices related to 8 images). \relax }}{6}{figure.caption.3}\protected@file@percent }
\newlabel{fig:CDMAM}{{3}{6}{\rm \scriptsize \textbf {a)} Output of a typical CDMAM 4.0 test tool analysis. A smoothed detection matrix is shown at the top panel. Next, two tables present a detailed and a summary report of the computed thresholds (the summary table presents values by using row colours according to achievable and acceptable values comparison). Finally, fitted psychometric curve (horizontal line marks the 62.5\% threshold) and human predicted Contrast--Detail curve are displayed at the bottom of the results window. \textbf {b)} Examples of the Excel file created with the results of a CDMAM 4.0 test tool analysis (obtained from the matrices related to 8 images). \relax }{figure.caption.3}{}}
\newlabel{fig:CDMAM@cref}{{[figure][3][]3}{[1][6][]6}}
\@writefile{toc}{\contentsline {subsection}{\numberline {2.2}FFDM plugins}{6}{subsection.2.2}\protected@file@percent }
\newlabel{sectionShortTime}{{2.2.1}{6}{AEC --- Short--term}{subsubsection.2.2.1}{}}
\newlabel{sectionShortTime@cref}{{[subsubsection][1][2,2]2.2.1}{[1][6][]6}}
\@writefile{toc}{\contentsline {subsubsection}{\numberline {2.2.1}AEC --- Short--term}{6}{subsubsection.2.2.1}\protected@file@percent }
\citation{Guidelines2006}
\citation{Gennaro2018}
\citation{supplement2013}
\citation{supplement2013}
\citation{Guidelines2006}
\citation{supplement2013}
\citation{IEC2007}
\@writefile{toc}{\contentsline {subsubsection}{\numberline {2.2.2}AEC --- SDNR (EUREF/EFOMP)}{7}{subsubsection.2.2.2}\protected@file@percent }
\newlabel{sdnr2D}{{2.2.2}{7}{AEC --- SDNR (EUREF/EFOMP)}{subsubsection.2.2.2}{}}
\newlabel{sdnr2D@cref}{{[subsubsection][2][2,2]2.2.2}{[1][6][]7}}
\@writefile{toc}{\contentsline {subsubsection}{\numberline {2.2.3}Homogeneity (EUREF)}{7}{subsubsection.2.2.3}\protected@file@percent }
\newlabel{sec_unif2D_EUREF}{{2.2.3}{7}{Homogeneity (EUREF)}{subsubsection.2.2.3}{}}
\newlabel{sec_unif2D_EUREF@cref}{{[subsubsection][3][2,2]2.2.3}{[1][7][]7}}
\@writefile{toc}{\contentsline {subsubsection}{\numberline {2.2.4}Uniformity (EFOMP)}{7}{subsubsection.2.2.4}\protected@file@percent }
\newlabel{sec_unif2D_EFOMP}{{2.2.4}{7}{Uniformity (EFOMP)}{subsubsection.2.2.4}{}}
\newlabel{sec_unif2D_EFOMP@cref}{{[subsubsection][4][2,2]2.2.4}{[1][7][]7}}
\@writefile{toc}{\contentsline {subsubsection}{\numberline {2.2.5}Artefact evaluation}{7}{subsubsection.2.2.5}\protected@file@percent }
\@writefile{toc}{\contentsline {subsubsection}{\numberline {2.2.6}Interplate sensitivity variations}{7}{subsubsection.2.2.6}\protected@file@percent }
\@writefile{toc}{\contentsline {subsubsection}{\numberline {2.2.7}Uncorrected defective elements}{7}{subsubsection.2.2.7}\protected@file@percent }
\newlabel{dels}{{2.2.7}{7}{Uncorrected defective elements}{subsubsection.2.2.7}{}}
\newlabel{dels@cref}{{[subsubsection][7][2,2]2.2.7}{[1][7][]7}}
\newlabel{NNPS}{{2.2.8}{7}{NNPS}{subsubsection.2.2.8}{}}
\newlabel{NNPS@cref}{{[subsubsection][8][2,2]2.2.8}{[1][7][]7}}
\@writefile{toc}{\contentsline {subsubsection}{\numberline {2.2.8}NNPS}{7}{subsubsection.2.2.8}\protected@file@percent }
\@writefile{toc}{\contentsline {subsection}{\numberline {2.3}DBT plugins}{7}{subsection.2.3}\protected@file@percent }
\citation{Rodriguez-Ruiz2016}
\citation{Rodriguez-Ruiz2016}
\citation{VanEngen2018}
\citation{VanEngen2018}
\@writefile{lof}{\contentsline {figure}{\numberline {4}{\ignorespaces cap for nnps}}{8}{figure.caption.4}\protected@file@percent }
\newlabel{fig:NNPS}{{4}{8}{cap for nnps}{figure.caption.4}{}}
\newlabel{fig:NNPS@cref}{{[figure][4][]4}{[1][7][]8}}
\@writefile{toc}{\contentsline {subsubsection}{\numberline {2.3.1}AEC --- Short-term}{8}{subsubsection.2.3.1}\protected@file@percent }
\@writefile{toc}{\contentsline {subsubsection}{\numberline {2.3.2}AEC --- SDNR Tomo}{8}{subsubsection.2.3.2}\protected@file@percent }
\@writefile{toc}{\contentsline {subsubsection}{\numberline {2.3.3}Homogeneity --- UNIF}{8}{subsubsection.2.3.3}\protected@file@percent }
\newlabel{Un