5,5;0
6;3,39466E-40
6,5;7,77953E-33
7;9,5485E-27
7,5;9,68419E-22
8;2,14087E-17
8,5;2,28956E-14
9;1,34945E-12
9,5;2,27511E-10
10;1,15622E-08
10,5;4,3364E-08
11;3,17131E-07
11,5;2,48381E-06
12;9,35334E-06
12,5;3,56444E-05
13;0,00013219
13,5;0,000434717
14;0,00123505
14,5;0,00309791
15;0,00698814
15,5;0,0117467
16;0,0185491
16,5;0,0278271
17;0,0406249
17,5;0,0561085
18;0,075552
18,5;0,098845
19;0,125555
19,5;0,1517
20;0,180252
20,5;0,195438
21;0,202381
21,5;0,207086
22;0,208103
22,5;0,20382
23;0,175817
23,5;0,00320419
24;0,00311899
24,5;0,00233705
25;0
25,5;0
