5,5;0
6;1,29156E-38
6,5;1,16068E-31
7;6,58697E-26
7,5;3,86115E-21
8;5,79673E-17
8,5;5,20668E-14
9;2,03622E-12
9,5;3,113E-10
10;1,36071E-08
10,5;3,58647E-08
11;2,19763E-07
11,5;1,65802E-06
12;5,12889E-06
12,5;1,71349E-05
13;5,98371E-05
13,5;0,000185885
14;0,000510519
14,5;0,00128158
15;0,00282627
15,5;0,00466581
16;0,00741
16,5;0,0111961
17;0,0166316
17,5;0,0236371
18;0,0327902
18,5;0,0437057
19;0,0564572
19,5;0,0724434
20;0,089996
20,5;0,101531
21;0,116221
21,5;0,128123
22;0,142568
22,5;0,155577
23;0,16825
23,5;0,00726435
24;0,00892994
24,5;0,0110845
25;0,0131218
25,5;0,015796
26;0,0183724
26,5;0,0215238
27;0,0246752
27,5;0,0280202
28;0,0310182
28,5;0,0343576
29;0,0374431
29,5;0,0403257
30;0,0436306
30,5;0,044578
31;0,0460866
31,5;0,0460418
32;0,0457859
32,5;0,0450347
33;0,0434473
33,5;0,0417358
34;0,039404
34,5;0,0341617
35;0,0304499
35,5;0,0250012
36;0,02065
36,5;0,0179611
37;0,00800708
37,5;0
