5,5;0
6;1,73694E-38
6,5;1,59797E-31
7;9,04431E-26
7,5;5,2428E-21
8;7,56494E-17
8,5;6,72901E-14
9;2,70849E-12
9,5;3,94963E-10
10;1,74125E-08
10,5;4,78241E-08
11;2,94172E-07
11,5;2,20398E-06
12;6,94399E-06
12,5;2,35412E-05
13;8,13111E-05
13,5;0,000252633
14;0,0006899
14,5;0,00172349
15;0,00375337
15,5;0,00619303
16;0,00977359
16,5;0,0146813
17;0,0216256
17,5;0,0305822
18;0,0423165
18,5;0,056145
19;0,0720412
19,5;0,0920368
20;0,113769
20,5;0,127728
21;0,145271
21,5;0,158745
22;0,174861
22,5;0,189023
23;0,203629
23,5;0,00872791
24;0,0106016
24,5;0,0129775
25;0,0153063
25,5;0,0181915
26;0,0207674
26,5;0,0234464
27;0,0263454
27,5;0,0296004
28;0,0319801
28,5;0,0343884
29;0,0356079
29,5;0,0371891
30;0,0399198
30,5;0,0373953
31;0,0359611
31,5;0,0323458
32;0,0294259
32,5;0,0251698
33;0,0174989
33,5;0,0090782
34;0,00312043
34,5;0
