5,5;0
6;9,532333E-41
6,5;2,04916E-33
7;2,42406E-27
7,5;2,60243E-22
8;6,52756E-18
8,5;8,12512E-15
9;4,1854E-13
9,5;8,31491E-11
10;4,45257E-09
10,5;1,33055E-08
11;9,22232E-08
11,5;7,75611E-07
12;2,63546E-06
12,5;9,5589E-06
13;3,62902E-05
13,5;0,00012085
14;0,000353969
14,5;0,000939234
15;0,00219072
15,5;0,00373662
16;0,00612619
16,5;0,00953244
17;0,0145698
17,5;0,0212079
18;0,030049
18,5;0,0409543
19;0,0541016
19,5;0,0705961
20;0,0891799
20,5;0,102081
21;0,118267
21,5;0,132296
22;0,148952
22,5;0,164711
23;0,179785
23,5;0,00410923
24;0,00526
24,5;0,0067605
25;0,00831112
25,5;0,0103294
26;0,0124394
26,5;0,0150788
27;0,017831
27,5;0,0207758
28;0,0237125
28,5;0,027047
29;0,0305707
29,5;0,0337943
30;0,0373042
30,5;0,0392919
31;0,0416699
31,5;0,0427883
32;0,0436543
32,5;0,0442238
33;0,0442295
33,5;0,0442155
34;0,0430905
34,5;0,0391555
35;0,0382218
35,5;0,0359842
36;0,0327073
36,5;0,0284111
37;0,0215899
37,5;0,0123518
38;0,00529126
38,5;0
