\relax 
\providecommand\hyper@newdestlabel[2]{}
\providecommand\HyperFirstAtBeginDocument{\AtBeginDocument}
\HyperFirstAtBeginDocument{\ifx\hyper@anchor\@undefined
\global\let\oldcontentsline\contentsline
\gdef\contentsline#1#2#3#4{\oldcontentsline{#1}{#2}{#3}}
\global\let\oldnewlabel\newlabel
\gdef\newlabel#1#2{\newlabelxx{#1}#2}
\gdef\newlabelxx#1#2#3#4#5#6{\oldnewlabel{#1}{{#2}{#3}}}
\AtEndDocument{\ifx\hyper@anchor\@undefined
\let\contentsline\oldcontentsline
\let\newlabel\oldnewlabel
\fi}
\fi}
\global\let\hyper@last\relax 
\gdef\HyperFirstAtBeginDocument#1{#1}
\providecommand\HyField@AuxAddToFields[1]{}
\providecommand\HyField@AuxAddToCoFields[2]{}
\orcidauthor{0000-0001-5174-0285}{Massimiliano Porzio~\href {https://orcid.org/0000-0001-5174-0285}{\includegraphics [height=\fontcharht \font `X]{orcid.png}}}
\csgdef{mark@corau1}{1}
\emailauthor{massimiliano.porzio@gmail.com}{Massimiliano Porzio~\href {https://orcid.org/0000-0001-5174-0285}{\includegraphics [height=\fontcharht \font `X]{orcid.png}}}
\creditauthor{Conceptualization of this work, Methodology, Software development, Original draft preparation}{Massimiliano Porzio~\href {https://orcid.org/0000-0001-5174-0285}{\includegraphics [height=\fontcharht \font `X]{orcid.png}}}
\creditauthor{Software tests, Original draft preparation}{Anastasios C Konstantinidis}
\NewLabel{cor1}{1}
\citation{Reis2013}
\citation{Reis2013}
\citation{Guidelines2006}
\citation{supplement2013}
\citation{updates2017}
\citation{Gennaro2018}
\citation{VanEngen2018}
\citation{Reis2013}
\@writefile{toc}{\contentsline {section}{\numberline {1}Introduction}{1}{section.1}\protected@file@percent }
\citation{Donini2014}
\citation{OBJ}
\citation{iqworks}
\citation{DRIQ}
\citation{Zhang2017}
\citation{nccpmCDMAM}
\citation{artinis}
\citation{Schneider2012}
\citation{dataset}
\citation{dataset}
\citation{dataset}
\@writefile{toc}{\contentsline {section}{\numberline {2}Material and Methods}{3}{section.2}\protected@file@percent }
\newlabel{methods}{{2}{3}{Material and Methods}{section.2}{}}
\newlabel{methods@cref}{{[section][2][]2}{[1][3][]3}}
\newlabel{refROI}{{2.0.1}{3}{Reference ROI}{subsubsection.2.0.1}{}}
\newlabel{refROI@cref}{{[subsubsection][1][2,0]2.0.1}{[1][3][]3}}
\@writefile{toc}{\contentsline {subsubsection}{\numberline {2.0.1}Reference ROI }{3}{subsubsection.2.0.1}\protected@file@percent }
\citation{Guidelines2006,supplement2013,updates2017}
\citation{VanEngen2018}
\citation{Gennaro2018}
\gdef \LT@i {\LT@entry 
    {5}{159.52797pt}\LT@entry 
    {1}{126.57599pt}\LT@entry 
    {1}{66.888pt}\LT@entry 
    {1}{75.256pt}}
\@writefile{lot}{\contentsline {table}{\numberline {1}{\ignorespaces Tests for wich MAMMO\_QC can be useful. \relax }}{4}{table.1}\protected@file@percent }
\newlabel{efompIQ}{{3}{4}{Reference ROI}{table.1}{}}
\newlabel{efompIQ@cref}{{[footnote][3][]3}{[1][4][]4}}
\@writefile{toc}{\contentsline {subsection}{\numberline {2.1}Description of Utilities and General plugins}{5}{subsection.2.1}\protected@file@percent }
\newlabel{Utilities}{{2.1}{5}{Description of Utilities and General plugins}{subsection.2.1}{}}
\newlabel{Utilities@cref}{{[subsection][1][2]2.1}{[1][4][]5}}
\@writefile{toc}{\contentsline {subsubsection}{\numberline {2.1.1}Sort by Acquisition Time}{5}{subsubsection.2.1.1}\protected@file@percent }
\@writefile{toc}{\contentsline {subsubsection}{\numberline {2.1.2}Sort by Slice}{5}{subsubsection.2.1.2}\protected@file@percent }
\@writefile{toc}{\contentsline {subsubsection}{\numberline {2.1.3}AGD from Header}{5}{subsubsection.2.1.3}\protected@file@percent }
\@writefile{toc}{\contentsline {subsubsection}{\numberline {2.1.4}DR --- Bad Pixel Map}{5}{subsubsection.2.1.4}\protected@file@percent }
\@writefile{toc}{\contentsline {subsubsection}{\numberline {2.1.5}Response Function}{5}{subsubsection.2.1.5}\protected@file@percent }
\newlabel{resp_fun}{{2.1.5}{5}{Response Function}{subsubsection.2.1.5}{}}
\newlabel{resp_fun@cref}{{[subsubsection][5][2,1]2.1.5}{[1][5][]5}}
\@writefile{toc}{\contentsline {subsubsection}{\numberline {2.1.6}Noise evaluation}{5}{subsubsection.2.1.6}\protected@file@percent }
\newlabel{noise}{{2.1.6}{5}{Noise evaluation}{subsubsection.2.1.6}{}}
\newlabel{noise@cref}{{[subsubsection][6][2,1]2.1.6}{[1][5][]5}}
\@writefile{toc}{\contentsline {subsubsection}{\numberline {2.1.7}AEC --- Long Term}{5}{subsubsection.2.1.7}\protected@file@percent }
\newlabel{longterm}{{2.1.7}{5}{AEC --- Long Term}{subsubsection.2.1.7}{}}
\newlabel{longterm@cref}{{[subsubsection][7][2,1]2.1.7}{[1][5][]5}}
\citation{Rampado2006}
\citation{Rampado2006}
\citation{Samei98,Bradford,Stierstorfer}
\citation{supplement2013,IEC2007}
\@writefile{lof}{\contentsline {figure}{\numberline {1}{\ignorespaces cap for mtf edge}}{6}{figure.caption.1}\protected@file@percent }
\providecommand*\caption@xref[2]{\@setref\relax\@undefined{#1}}
\newlabel{fig:MTFEdge}{{1}{6}{cap for mtf edge}{figure.caption.1}{}}
\newlabel{fig:MTFEdge@cref}{{[figure][1][]1}{[1][6][]6}}
\@writefile{toc}{\contentsline {subsubsection}{\numberline {2.1.8}DR --- Local Dense Area}{6}{subsubsection.2.1.8}\protected@file@percent }
\@writefile{toc}{\contentsline {subsubsection}{\numberline {2.1.9}MTF --- Edge pMTF}{6}{subsubsection.2.1.9}\protected@file@percent }
\newlabel{MTF_edge}{{2.1.9}{6}{MTF --- Edge pMTF}{subsubsection.2.1.9}{}}
\newlabel{MTF_edge@cref}{{[subsubsection][9][2,1]2.1.9}{[1][6][]6}}
\newlabel{DQE}{{2.1.10}{6}{DQE}{subsubsection.2.1.10}{}}
\newlabel{DQE@cref}{{[subsubsection][10][2,1]2.1.10}{[1][6][]6}}
\@writefile{toc}{\contentsline {subsubsection}{\numberline {2.1.10}DQE}{6}{subsubsection.2.1.10}\protected@file@percent }
\citation{Konstantinidis}
\citation{Young2006,Young2008}
\citation{Veldkamp2003}
\citation{Young2008}
\citation{Young2008}
\@writefile{lof}{\contentsline {figure}{\numberline {2}{\ignorespaces cap for dqe}}{7}{figure.caption.2}\protected@file@percent }
\newlabel{fig:DQE}{{2}{7}{cap for dqe}{figure.caption.2}{}}
\newlabel{fig:DQE@cref}{{[figure][2][]2}{[1][7][]7}}
\@writefile{toc}{\contentsline {subsubsection}{\numberline {2.1.11}CDMAM Analysis}{7}{subsubsection.2.1.11}\protected@file@percent }
\newlabel{cdmam}{{2.1.11}{7}{CDMAM Analysis}{subsubsection.2.1.11}{}}
\newlabel{cdmam@cref}{{[subsubsection][11][2,1]2.1.11}{[1][7][]7}}
\citation{Young2006,Fabiszewska2016,Klein2001}
\@writefile{lof}{\contentsline {figure}{\numberline {3}{\ignorespaces cap for cdmam}}{8}{figure.caption.3}\protected@file@percent }
\newlabel{fig:CDMAM}{{3}{8}{cap for cdmam}{figure.caption.3}{}}
\newlabel{fig:CDMAM@cref}{{[figure][3][]3}{[1][8][]8}}
\@writefile{lof}{\contentsline {figure}{\numberline {4}{\ignorespaces cap for cdmam_export}}{8}{figure.caption.4}\protected@file@percent }
\newlabel{fig:CDMAM_export}{{4}{8}{cap for cdmam_export}{figure.caption.4}{}}
\newlabel{fig:CDMAM_export@cref}{{[figure][4][]4}{[1][8][]8}}
\@writefile{toc}{\contentsline {subsection}{\numberline {2.2}Description of FFDM plugins}{8}{subsection.2.2}\protected@file@percent }
\citation{supplement2013}
\citation{supplement2013}
\@writefile{toc}{\contentsline {subsubsection}{\numberline {2.2.1}AEC --- Short--term}{9}{subsubsection.2.2.1}\protected@file@percent }
\@writefile{toc}{\contentsline {subsubsection}{\numberline {2.2.2}AEC --- SDNR}{9}{subsubsection.2.2.2}\protected@file@percent }
\newlabel{sdnr2D}{{2.2.2}{9}{AEC --- SDNR}{subsubsection.2.2.2}{}}
\newlabel{sdnr2D@cref}{{[subsubsection][2][2,2]2.2.2}{[1][9][]9}}
\@writefile{toc}{\contentsline {subsubsection}{\numberline {2.2.3}Homogeneity}{9}{subsubsection.2.2.3}\protected@file@percent }
\newlabel{sec_unif2D}{{2.2.3}{9}{Homogeneity}{subsubsection.2.2.3}{}}
\newlabel{sec_unif2D@cref}{{[subsubsection][3][2,2]2.2.3}{[1][9][]9}}
\@writefile{lof}{\contentsline {figure}{\numberline {5}{\ignorespaces cap for homog2d}}{9}{figure.caption.5}\protected@file@percent }
\newlabel{fig:omog}{{5}{9}{cap for homog2d}{figure.caption.5}{}}
\newlabel{fig:omog@cref}{{[figure][5][]5}{[1][9][]9}}
\@writefile{toc}{\contentsline {subsubsection}{\numberline {2.2.4}Artefact evaluation}{9}{subsubsection.2.2.4}\protected@file@percent }
\@writefile{toc}{\contentsline {subsubsection}{\numberline {2.2.5}Interplate sensitivity variations}{9}{subsubsection.2.2.5}\protected@file@percent }
\@writefile{toc}{\contentsline {subsubsection}{\numberline {2.2.6}Uncorrected defective elements}{9}{subsubsection.2.2.6}\protected@file@percent }
\citation{IEC2007}
\citation{Rodriguez-Ruiz2016}
\citation{Rodriguez-Ruiz2016}
\citation{VanEngen2018}
\citation{VanEngen2018}
\@writefile{lof}{\contentsline {figure}{\numberline {6}{\ignorespaces cap for nnps}}{10}{figure.caption.6}\protected@file@percent }
\newlabel{fig:NNPS}{{6}{10}{cap for nnps}{figure.caption.6}{}}
\newlabel{fig:NNPS@cref}{{[figure][6][]6}{[1][10][]10}}
\newlabel{NNPS}{{2.2.7}{10}{NNPS}{subsubsection.2.2.7}{}}
\newlabel{NNPS@cref}{{[subsubsection][7][2,2]2.2.7}{[1][10][]10}}
\@writefile{toc}{\contentsline {subsubsection}{\numberline {2.2.7}NNPS}{10}{subsubsection.2.2.7}\protected@file@percent }
\@writefile{toc}{\contentsline {subsection}{\numberline {2.3}Description of DBT plugins}{10}{subsection.2.3}\protected@file@percent }
\@writefile{toc}{\contentsline {subsubsection}{\numberline {2.3.1}AEC --- Short-term}{10}{subsubsection.2.3.1}\protected@file@percent }
\@writefile{toc}{\contentsline {subsubsection}{\numberline {2.3.2}AEC --- SDNR Tomo}{10}{subsubsection.2.3.2}\protected@file@percent }
\newlabel{noteHologic}{{10}{10}{Description of DBT plugins}{subsection.2.3}{}}
\newlabel{noteHologic@cref}{{[footnote][10][]10}{[1][10][]10}}
\citation{Siewerdsen2002}
\@writefile{lof}{\contentsline {figure}{\numberline {7}{\ignorespaces cap for ROIs}}{11}{figure.caption.7}\protected@file@percent }
\newlabel{fig:SDNR}{{7}{11}{cap for ROIs}{figure.caption.7}{}}
\newlabel{fig:SDNR@cref}{{[figure][7][]7}{[1][10][]11}}
\@writefile{toc}{\contentsline {subsubsection}{\numberline {2.3.3}Homogeneity --- UNIF}{11}{subsubsection.2.3.3}\protected@file@percent }
\newlabel{UnifDBT}{{2.3.3}{11}{Homogeneity --- UNIF}{subsubsection.2.3.3}{}}
\newlabel{UnifDBT@cref}{{[subsubsection][3][2,3]2.3.3}{[1][11][]11}}
\@writefile{toc}{\contentsline {subsubsection}{\numberline {2.3.4}Homogeneity --- Artefact}{11}{subsubsection.2.3.4}\protected@file@percent }
\newlabel{ArtefactDBT}{{2.3.4}{11}{Homogeneity --- Artefact}{subsubsection.2.3.4}{}}
\newlabel{ArtefactDBT@cref}{{[subsubsection][4][2,3]2.3.4}{[1][11][]11}}
\@writefile{toc}{\contentsline {subsubsection}{\numberline {2.3.5}Uncorrected defective elements (TOMO)}{11}{subsubsection.2.3.5}\protected@file@percent }
\citation{Siewerdsen2002}
\citation{Siewerdsen2002}
\citation{Rodriguez-Ruiz2016}
\citation{Rodriguez-Ruiz2016}
\citation{Guidelines2006,supplement2013,updates2017,VanEngen2018}
\@writefile{lof}{\contentsline {figure}{\numberline {8}{\ignorespaces cap for unifBTO}}{12}{figure.caption.8}\protected@file@percent }
\newlabel{fig:UnifBTO}{{8}{12}{cap for unifBTO}{figure.caption.8}{}}
\newlabel{fig:UnifBTO@cref}{{[figure][8][]8}{[1][11][]12}}
\@writefile{lof}{\contentsline {figure}{\numberline {9}{\ignorespaces cap for wire}}{12}{figure.caption.9}\protected@file@percent }
\newlabel{fig:wire}{{9}{12}{cap for wire}{figure.caption.9}{}}
\newlabel{fig:wire@cref}{{[figure][9][]9}{[1][12][]12}}
\@writefile{toc}{\contentsline {subsubsection}{\numberline {2.3.6}NPS x--y plane}{12}{subsubsection.2.3.6}\protected@file@percent }
\@writefile{toc}{\contentsline {subsubsection}{\numberline {2.3.7}pMTF x--y plane}{12}{subsubsection.2.3.7}\protected@file@percent }
\@writefile{toc}{\contentsline {subsection}{\numberline {2.4}Validation}{12}{subsection.2.4}\protected@file@percent }
\citation{Donini2014}
\citation{OBJ}
\citation{VanEngen2018}
\citation{artinis}
\citation{VanEngen2018}
\citation{Veldkamp2003}
\@writefile{toc}{\contentsline {section}{\numberline {3}Results}{13}{section.3}\protected@file@percent }
\@writefile{toc}{\contentsline {subsection}{\numberline {3.1}pMTF, NNPS and DQE comparisons}{13}{subsection.3.1}\protected@file@percent }
\@writefile{toc}{\contentsline {subsection}{\numberline {3.2}CDMAM analysis evaluation}{13}{subsection.3.2}\protected@file@percent }
\@writefile{lof}{\contentsline {figure}{\numberline {10}{\ignorespaces cap for DQE_comp}}{14}{figure.caption.10}\protected@file@percent }
\newlabel{fig:DQE_comparisons}{{10}{14}{cap for DQE_comp}{figure.caption.10}{}}
\newlabel{fig:DQE_comparisons@cref}{{[figure][10][]10}{[1][13][]14}}
\@writefile{lof}{\contentsline {figure}{\numberline {11}{\ignorespaces cap for wireComp}}{14}{figure.caption.11}\protected@file@percent }
\newlabel{fig:wireComparison}{{11}{14}{cap for wireComp}{figure.caption.11}{}}
\newlabel{fig:wireComparison@cref}{{[figure][11][]11}{[1][13][]14}}
\citation{Schneider2012}
\@writefile{lof}{\contentsline {figure}{\numberline {12}{\ignorespaces cap for cdmamComp}}{15}{figure.caption.12}\protected@file@percent }
\newlabel{fig:cdmamComparison}{{12}{15}{cap for cdmamComp}{figure.caption.12}{}}
\newlabel{fig:cdmamComparison@cref}{{[figure][12][]12}{[1][14][]15}}
\@writefile{toc}{\contentsline {subsection}{\numberline {3.3}Artefacts and Homogeneity}{15}{subsection.3.3}\protected@file@percent }
\@writefile{lof}{\contentsline {figure}{\numberline {13}{\ignorespaces cap for artefact}}{15}{figure.caption.13}\protected@file@percent }
\newlabel{fig:artefacts}{{13}{15}{cap for artefact}{figure.caption.13}{}}
\newlabel{fig:artefacts@cref}{{[figure][13][]13}{[1][14][]15}}
\@writefile{toc}{\contentsline {section}{\numberline {4}Discussion}{15}{section.4}\protected@file@percent }
\newlabel{Discussion}{{4}{15}{Discussion}{section.4}{}}
\newlabel{Discussion@cref}{{[section][4][]4}{[1][15][]15}}
\citation{OBJ}
\newlabel{Implications}{{4}{16}{Implications}{section*.14}{}}
\newlabel{Implications@cref}{{[section][4][]4}{[1][16][]16}}
\newlabel{Limitations}{{4}{16}{Limitations}{section*.15}{}}
\newlabel{Limitations@cref}{{[section][4][]4}{[1][16][]16}}
\bibstyle{elsarticle-num-names}
\bibdata{cas-refs,./bibliography/biblio}
\bibcite{Reis2013}{{1}{2013}{{Cl{\'{a}}udia Reis and Ana Pascoal and Taxiarchis Sakellaris and Manthos Koutalonis}}{{}}}
\bibcite{Guidelines2006}{{2}{2006}{{EUROPEAN COMMISSION}}{{}}}
\bibcite{supplement2013}{{3}{2013}{{EUROPEAN COMMISSION}}{{}}}
\bibcite{updates2017}{{4}{2017}{{Van Engen}}{{}}}
\bibcite{Gennaro2018}{{5}{2018}{{Gennaro et~al.}}{{Gennaro, Avramova-Cholakova, Azzalini, Chapel, Chevalier, Ciraj, de~las Heras, Gershan, Hemdal, Keavey, Lanconelli, Menhart, Fartaria, Pascoal, Pedersen, Rivetti, Rossetti, Semturs, Sharp, and Torresin}}}
\bibcite{VanEngen2018}{{6}{2018}{{{Van Engen} et~al.}}{{{Van Engen}, Bosmans, Bouwman, Dance, Heid, Lazzari, Marshall, Phelan, Schopphoven, Strudley, Thijssen, and Young}}}
\bibcite{Donini2014}{{7}{2014}{{Donini et~al.}}{{Donini, Rivetti, Lanconelli, and Bertolini}}}
\bibcite{OBJ}{{8}{2009}{{Marshall}}{{}}}
\bibcite{iqworks}{{9}{2017}{{iqw}}{{}}}
\bibcite{DRIQ}{{10}{2017}{{Loveland}}{{}}}
\bibcite{Zhang2017}{{11}{2017}{{Zhang et~al.}}{{Zhang, Petrov, Marshall, and Bosmans}}}
\@writefile{toc}{\contentsline {section}{\numberline {5}Conclusions}{17}{section.5}\protected@file@percent }
\newlabel{Conclusions}{{5}{17}{Conclusions}{section.5}{}}
\newlabel{Conclusions@cref}{{[section][5][]5}{[1][16][]17}}
\newlabel{Acknowledgements}{{5}{17}{Acknowledgements}{section*.16}{}}
\newlabel{Acknowledgements@cref}{{[section][5][]5}{[1][17][]17}}
\bibcite{nccpmCDMAM}{{12}{2011}{{ncc}}{{}}}
\bibcite{artinis}{{13}{2019}{{art}}{{}}}
\bibcite{Schneider2012}{{14}{2012}{{Schneider et~al.}}{{Schneider, Rasband, and Eliceiri}}}
\bibcite{dataset}{{15}{2020}{{Porzio}}{{}}}
\bibcite{Rampado2006}{{16}{2006}{{Rampado et~al.}}{{Rampado, Isoardi, and Ropolo}}}
\bibcite{Samei98}{{17}{1998}{{Samei et~al.}}{{Samei, Flynn, and Reimann}}}
\bibcite{Bradford}{{18}{1999}{{Bradford et~al.}}{{Bradford, Peppler, and Dobbins~III}}}
\bibcite{Stierstorfer}{{19}{1999}{{Stierstorfer and Spahn}}{{}}}
\bibcite{IEC2007}{{20}{2007}{{Commission}}{{}}}
\bibcite{Konstantinidis}{{21}{2011}{{Konstantinidis}}{{}}}
\bibcite{Young2006}{{22}{2006}{{Young et~al.}}{{Young, Cook, and Oduko}}}
\bibcite{Young2008}{{23}{2008}{{Young et~al.}}{{Young, Alsager, Oduko, Bosmans, Verbrugge, Geertse, and van Engen}}}
\bibcite{Veldkamp2003}{{24}{2003}{{Veldkamp et~al.}}{{Veldkamp, Thijssen, and Karssemeijer}}}
\bibcite{Fabiszewska2016}{{25}{2016}{{Fabiszewska et~al.}}{{Fabiszewska, Grabska, and Pasicz}}}
\bibcite{Klein2001}{{26}{2001}{{Klein}}{{}}}
\bibcite{Rodriguez-Ruiz2016}{{27}{2016}{{Rodr{\'{\i }}guez-Ruiz et~al.}}{{Rodr{\'{\i }}guez-Ruiz, Castillo, Garayoa, and Chevalier}}}
\bibcite{Siewerdsen2002}{{28}{2002}{{Siewerdsen et~al.}}{{Siewerdsen, Cunningham, and Jaffray}}}
\csxdef{lastpage}{18}
