3.5		0
4		0
4.5		0
5		0
5.5		3.08483E-35
6		8.26253E-26
6.5		9.0667E-20
7		6.83265E-15
7.5		6.01535E-11
8		1.14207E-07
8.5		1.50546E-05
9		0.000903619
9.5		0.029827892
10		0.589501245
10.5		3.785999208
11		20.02177228
11.5		87.92867676
12		317.7066744
12.5		1010.425298
13		2753.069192
13.5		6721.839446
14		14920.92275
14.5		30086.17058
15		56022.77956
15.5		82279.9871
16		116805.402
16.5		161890.2571
17		411338.4508
17.5		2626229.35
18		419363.5612
18.5		413659.2831
19		509976.159
19.5		1640106.467
20		136091.241
20.5		77608.12258
21		91434.49319
21.5		108831.1315
22		125631.7348
22.5		144819.4186
23		164449.3954
23.5		181076.1677
24		203363.438
24.5		223505.4914
25		245282.4804
25.5		258135.5652
26		274332.4459
26.5		288906.8147
27		296487.2751
27.5		302703.6077
28		302552.8285
28.5		300935.6251
29		287275.4255
29.5		277546.1687
30		262657.8179
30.5		227361.3639
31		188911.4768
31.5		152479.1235
32		122088.6658
32.5		83234.93492
33		4700.651551
33.5		0
