3.5		0
4		0
4.5		0
5		0
5.5		5.13198E-35
6		1.36398E-25
6.5		1.46374E-19
7		1.1098E-14
7.5		9.90798E-11
8		1.80227E-07
8.5		2.3503E-05
9		0.001406938
9.5		0.046204976
10		0.901634901
10.5		5.75863306
11		30.28531327
11.5		131.6594944
12		473.1496225
12.5		1491.182226
13		4055.317615
13.5		9819.963085
14		21633.02886
14.5		43307.45969
15		79837.56688
15.5		115980.6074
16		162947.1287
16.5		222784.0555
17		475037.7505
17.5		2567847.786
18		530315.2165
18.5		550774.2266
19		669965.5086
19.5		1749600.937
20		154025.1904
20.5		101034.917
21		118180.6743
21.5		136502.0038
22		153872.0578
22.5		172150.5831
23		187078.7657
23.5		200976.2303
24		217742.5223
24.5		222778.9079
25		228489.6913
25.5		225203.2523
26		225622.9575
26.5		211102.629
27		179816.0085
27.5		159828.2663
28		128490.6112
28.5		72826.95252
29		10243.06442
29.5		0
