3.5		0
4		0
4.5		0
5		0
5.5		1.76744E-35
6		4.80061E-26
6.5		5.39218E-20
7		3.98024E-15
7.5		3.39569E-11
8		6.91873E-08
8.5		9.1805E-06
9		0.00055786
9.5		0.018399885
10		0.37120117
10.5		2.392128182
11		12.89561896
11.5		56.90062029
12		207.2448356
12.5		662.6167995
13		1824.274843
13.5		4491.804542
14		10048.22081
14.5		20313.93287
15		38119.60443
15.5		56636.22547
16		81168.27456
16.5		114356.3596
17		350821.1082
17.5		2538242.352
18		323559.9878
18.5		298859.0025
19		375893.597
19.5		1494952.771
20		115734.7354
20.5		54903.59925
21		65576.24744
21.5		79254.29904
22		93544.77811
22.5		109383.4914
23		126268.8271
23.5		142990.8071
24		164093.6716
24.5		185056.317
25		206275.5574
25.5		224644.8002
26		245089.1931
26.5		266896.0753
27		277642.6701
27.5		304168.6998
28		318368.8206
28.5		336902.1528
29		345075.5533
29.5		357804.7927
30		365739.6791
30.5		366976.4086
31		365321.1891
31.5		355522.9151
32		348530.5333
32.5		331079.2653
33		328379.5977
33.5		313017.2259
34		297334.6183
34.5		288688.498
35		270843.9969
35.5		241069.7012
36		210540.7932
36.5		183888.2767
37		160877.9327
37.5		120778.4403
38		94310.94185
38.5		57191.11795
39		25998.82761
39.5		0
