3.5		0
4		0
4.5		0
5		0
5.5		4.6446E-38
6		4.23464E-28
6.5		1.09561E-21
7		1.63754E-16
7.5		2.52006E-12
8		8.09673E-09
8.5		1.479E-06
9		0.000117815
9.5		0.004938751
10		0.121517523
10.5		0.89424545
11		5.387859093
11.5		26.46124419
12		105.793537
12.5		368.4365144
13		1090.523563
13.5		2871.079576
14		6819.053417
14.5		14577.17087
15		28707.21499
15.5		43912.61765
16		64689.29659
16.5		93223.62533
17		278093.1836
17.5		1997940.732
18		276364.3396
18.5		265595.5142
19		337888.7438
19.5		1289333.877
20		819616.1837
20.5		375745.632
21		409054.3773
21.5		454687.7545
22		493190.2921
22.5		533623.876
23		573448.927
23.5		86527.00947
24		101141.3077
24.5		116522.5754
25		132477.9081
25.5		145910.9234
26		161286.8879
26.5		177903.1315
27		186845.6543
27.5		206551.0262
28		217720.2308
28.5		231757.8031
29		238240.9682
29.5		248311.0746
30		254086.2602
30.5		255357.7043
31		254161.16
31.5		244048.6276
32		238689.0827
32.5		217533.9568
33		212928.7932
33.5		198950.2048
34		179436.4286
34.5		167332.5325
35		142759.4898
35.5		111169.6611
36		83467.06446
36.5		58872.21605
37		27029.14996
37.5		0
