3.5		0
4		0
4.5		0
5		0
5.5		3.81546E-38
6		3.94223E-28
6.5		1.02326E-21
7		1.52325E-16
7.5		2.33078E-12
8		7.57919E-09
8.5		1.38517E-06
9		0.000110625
9.5		0.004634648
10		0.114434525
10.5		0.842373012
11		5.094910166
11.5		25.02736561
12		100.19972
12.5		349.1181071
13		1035.657871
13.5		2729.967741
14		6491.44117
14.5		13877.70377
15		27356.107
15.5		41919.54953
16		61837.50937
16.5		89350.04384
17		274095.4275
17.5		2002027.26
18		268355.7594
18.5		255330.5712
19		326003.5609
19.5		1282949.311
20		806847.3374
20.5		359394.6368
21		392431.7143
21.5		436773.2081
22		475339.6087
22.5		515213.6732
23		554189.2006
23.5		84085.50958
24		98510.22138
24.5		113611.5494
25		129273.7848
25.5		143036.1697
26		158639.1813
26.5		175573.6302
27		184967.292
27.5		205758.5863
28		218043.8646
28.5		233476.0138
29		241641.0019
29.5		253325.2311
30		261162.1368
30.5		264551.3418
31		265596.1949
31.5		258683.0069
32		255242.7562
32.5		239176.884
33		238383.177
33.5		227398.044
34		212317.1419
34.5		203808.3873
35		187657.4135
35.5		160988.2751
36		134423.2696
36.5		111149.4601
37		86698.03547
37.5		49026.12432
38		23768.34216
38.5		0
