3.5		0
4		0
4.5		0
5		0
5.5		1.49112E-36
6		7.2782E-27
6.5		1.18432E-20
7		1.24701E-15
7.5		1.45376E-11
8		3.43694E-08
8.5		5.27878E-06
9		0.000361981
9.5		0.013405766
10		0.291915271
10.5		1.998912883
11		11.18891264
11.5		51.68311392
12		195.5231954
12.5		647.5541955
13		1831.520067
13.5		4618.630609
14		10553.92223
14.5		21845.0712
15		41607.2112
15.5		61957.60337
16		89088.59968
16.5		124817.6367
17		308713.3466
17.5		1929993.348
18		328812.4688
18.5		331863.0785
19		411773.4093
19.5		1275166.874
20		855512.0897
20.5		458590.2179
21		492379.1838
21.5		534060.1247
22		564653.2556
22.5		598658.5594
23		625884.2391
23.5		127310.3298
24		142539.8782
24.5		155336.1181
25		169703.7972
25.5		177608.1133
26		188030.4182
26.5		196164.5961
27		200541.5072
27.5		200690.8281
28		197934.7648
28.5		191849.4018
29		177428.81
29.5		164786.0193
30		149726.3678
30.5		112786.8471
31		73269.97507
31.5		43772.62423
32		15229.72638
32.5		0
