3.5		0
4		0
4.5		0
5		0
5.5		9.47834E-37
6		4.66544E-27
6.5		7.76517E-21
7		8.05977E-16
7.5		9.17543E-12
8		2.29775E-08
8.5		3.55872E-06
9		0.000245931
9.5		0.00912185
10		0.201995574
10.5		1.388977924
11		7.874935464
11.5		36.62508844
12		139.4509572
12.5		464.8575416
13		1322.999013
13.5		3362.858278
14		7739.455168
14.5		16084.25202
15		30884.08606
15.5		46475.17005
16		67434.77228
16.5		95828.71547
17		282182.7868
17.5		2003166.384
18		274031.863
18.5		260666.6511
19		328486.4999
19.5		1242507.828
20		783461.9218
20.5		357001.6729
21		386443.6992
21.5		427263.9074
22		461121.9519
22.5		496578.5318
23		531277.6822
23.5		110234.6257
24		126519.7206
24.5		143243.4685
25		160177.5054
25.5		173651.2048
26		189079.7508
26.5		205587.1847
27		212988.0389
27.5		232401.9836
28		241945.8691
28.5		254516.8029
29		258704.4447
29.5		266758.245
30		270183.0935
30.5		269428.3584
31		266162.8795
31.5		253735.9471
32		246446.9111
32.5		223109.2273
33		216986.1487
33.5		201491.3027
34		180649.5685
34.5		167502.0178
35		142118.3764
35.5		110085.2854
36		82231.79029
36.5		57716.75409
37		26373.6573
37.5		0
