3.7		0
4.2		0
4.7		0
5.2		0
5.7		2.34082E-33
6.2		5.2923E-25
6.7		3.27434E-19
7.2		1.72179E-14
7.7		1.22141E-10
8.2		9.63581E-08
8.7		1.19579E-05
9.2		0.000712486
9.7		0.022961661
10.2		0.325951153
10.7		2.256871714
11.2		12.01597425
11.7		52.75223093
12.2		194.0769723
12.7		624.8401941
13.2		1743.867486
13.7		4303.729618
14.2		9618.676489
14.7		19405.74843
15.2		33405.58908
15.7		50317.04698
16.2		70158.39344
16.7		96029.59058
17.2		142857.1615
17.7		189807.6444
18.2		212383.4797
18.7		262730.0786
19.2		321472.9445
19.7		590909.9274
20.2		2935933.593
20.7		618783.4971
21.2		492536.7913
21.7		524310.2105
22.2		580927.792
22.7		1422519.532
23.2		790187.9039
23.7		525308.369
24.2		534231.2403
24.7		551149.3386
25.2		556717.7068
25.7		134602.636
26.2		142454.1322
26.7		149048.2089
27.2		151487.8294
27.7		160759.9811
28.2		158587.704
28.7		157293.3384
29.2		151876.0703
29.7		147518.7544
30.2		137229.6521
30.7		116979.9089
31.2		103435.0808
31.7		78458.59177
32.2		56991.32795
32.7		48643.17034
33.2		0
