3.7		0
4.2		0
4.7		0
5.2		0
5.7		4.49091E-32
6.2		6.68159E-24
6.7		3.13956E-18
7.2		1.28645E-13
7.7		7.3718E-10
8.2		4.9571E-07
8.7		5.43E-05
9.2		0.002892126
9.7		0.084562591
10.2		1.122880372
10.7		7.226062729
11.2		36.59991148
11.7		153.1207371
12.2		536.2087015
12.7		1651.220383
13.2		4449.124409
13.7		10556.42621
14.2		22789.57189
14.7		44556.73694
15.2		74922.40264
15.7		108392.1098
16.2		149283.6616
16.7		200177.835
17.2		275302.4517
17.7		350427.0466
18.2		406137.8346
18.7		478145.57
19.2		578533.6896
19.7		806555.8913
20.2		2172095.778
20.7		828395.4853
21.2		769962.3023
21.7		784151.04
22.2		790450.0546
22.7		1228885.176
23.2		831949.92
23.7		123222.981
24.2		129955.5006
24.7		124493.8546
25.2		114403.8179
25.7		90936.16251
26.2		89207.29269
26.7		63268.9814
27.2		0
