3.7		0
4.2		0
4.7		0
5.2		0
5.7		9.73914E-33
6.2		1.5536E-24
6.7		7.35977E-19
7.2		3.11747E-14
7.7		1.86525E-10
8.2		1.28142E-07
8.7		1.43383E-05
9.2		0.000790864
9.7		0.023423826
10.2		0.314990167
10.7		2.141529355
11.2		10.97608775
11.7		46.99411543
12.2		168.1386733
12.7		526.5295671
13.2		1445.746544
13.7		3484.229029
14.2		7719.630923
14.7		15235.4684
15.2		26190.13081
15.7		38557.47223
16.2		54780.55809
16.7		75993.70161
17.2		118420.2806
17.7		157616.0039
18.2		167104.0199
18.7		207150.7632
19.2		255322.4221
19.7		581501.8637
20.2		3650720.881
20.7		568610.5327
21.2		400811.5168
21.7		428201.3614
22.2		490103.3995
22.7		1592090.425
23.2		771530.1538
23.7		90095.82839
24.2		99866.02526
24.7		110142.3443
25.2		123408.3917
25.7		134643.2205
26.2		149707.5836
26.7		164045.6096
27.2		170575.2453
27.7		186928.0824
28.2		192506.6681
28.7		208132.4173
29.2		217000.0914
29.7		221307.3892
30.2		225638.5891
30.7		227213.6935
31.2		226947.9479
31.7		225711.7415
32.2		222072.548
32.7		217365.1301
33.2		212344.1624
33.7		205249.428
34.2		193743.6254
34.7		185908.3573
35.2		171655.4416
35.7		170387.8802
36.2		150904.2313
36.7		142680.7872
37.2		125582.2023
37.7		102533.2701
38.2		99854.82506
38.7		69799.91179
39.2		47969.86432
39.7		24731.91755
40.2		0
