5,5;0
6;6,0022E-38
6,5;4,42414E-31
7;2,10622E-25
7,5;1,01701E-20
8;1,23444E-16
8,5;9,47685E-14
9;3,75806E-12
9,5;4,87229E-10
10;1,99307E-08
10,5;5,82391E-08
11;3,57926E-07
11,5;2,53994E-06
12;8,18377E-06
12,5;2,77358E-05
13;9,36074E-05
13,5;0,000284998
14;0,000758694
14,5;0,00182598
15;0,00389428
15,5;0,00635411
16;0,00982333
16,5;0,0144694
17;0,0208607
17,5;0,0287318
18;0,0387903
18,5;0,0507358
19;0,0644033
19,5;0,0797526
20;0,0962852
20,5;0,106568
21;0,116995
21,5;0,125286
22;0,132827
22,5;0,140102
23;0,14528
23,5;0,150782
24;0,152772
24,5;0,150345
25;0,151112
25,5;0,144674
26;0,0134294
26,5;0,0128739
27;0,0120329
27,5;0,0107223
28;0,009074
28,5;0,00576297
29;0,00225729
29,5;0
