5,5;0
6;9,931949E-38
6,5;7,37416E-31
7;3,57212E-25
7,5;1,70043E-20
8;2,02408E-16
8,5;1,46764E-13
9;6,01592E-12
9,5;7,5763E-10
10;3,00503E-08
10,5;9,34512E-08
11;5,85626E-07
11,5;4,05389E-06
12;1,34318E-05
12,5;4,59037E-05
13;0,000154836
13,5;0,000468735
14;0,00123766
14,5;0,00291995
15;0,00620566
15,5;0,0100613
16;0,015386
16,5;0,0224168
17;0,0319039
17,5;0,0431271
18;0,0570403
18,5;0,0734806
19;0,09209
19,5;0,110565
20;0,130395
20,5;0,141248
21;0,148109
21,5;0,153398
22;0,155974
22,5;0,157094
23;0,147586
23,5;0,14051
24;0,129735
24,5;0,107589
25;0,0772208
25,5;0,0427999
26;0,00121991
26,5;0
