5,5;0
6;4,533439E-40
6,5;7,64684E-33
7;7,17824E-27
7,5;6,19975E-22
8;1,22624E-17
8,5;1,33233E-14
9;6,78193E-13
9,5;1,13471E-10
10;5,76446E-09
10,5;1,84431E-08
11;1,25796E-07
11,5;1,00504E-06
12;3,49089E-06
12,5;1,27817E-05
13;4,65618E-05
13,5;0,000152069
14;0,000432225
14,5;0,00111126
15;0,00249526
15,5;0,0042119
16;0,00674589
16,5;0,0102703
17;0,0152858
17,5;0,021766
18;0,0303262
18,5;0,0406648
19;0,0527408
19,5;0,0673647
20;0,0834536
20,5;0,0938888
21;0,10588
21,5;0,115479
22;0,125684
22,5;0,135258
23;0,144532
23,5;0,154383
24;0,160627
24,5;0,166072
25;0,172003
25,5;0,174632
26;0,0107623
26,5;0,0114112
27;0,0122284
27,5;0,0130893
28;0,0134217
28,5;0,0132247
29;0,0122834
29,5;0,0111855
30;0,00946054
30,5;0,00593685
31;0,00147295
31,5;0
