5,5;0
6;4,484155E-43
6,5;2,64886E-35
7;7,04039E-29
7,5;1,42532E-23
8;5,6842E-19
8,5;9,740439E-16
9;7,52157E-14
9,5;1,76601E-11
10;1,2044E-09
10,5;4,7721E-09
11;3,89801E-08
11,5;3,61644E-07
12;1,45835E-06
12,5;6,07506E-06
13;2,47496E-05
13,5;8,93011E-05
14;0,000277162
14,5;0,000768383
15;0,00185249
15,5;0,00327421
16;0,00546109
16,5;0,00863081
17;0,0132893
17,5;0,0194922
18;0,0279066
18,5;0,0384541
19;0,0511847
19,5;0,0666159
20;0,0840836
20,5;0,0959843
21;0,109159
21,5;0,120403
22;0,131851
22,5;0,143087
23;0,153436
23,5;0,164342
24;0,171485
24,5;0,175844
25;0,182572
25,5;0,183115
26;0,00559041
26,5;0,00595388
27;0,00635334
27,5;0,00668883
28;0,00674119
28,5;0,00621411
29;0,00524678
29,5;0,00381018
30;0,000709568
30,5;0
