5,5;0
6;2,970753E-43
6,5;1,71437E-35
7;4,47678E-29
7,5;9,2848E-24
8;3,89441E-19
8,5;7,07068E-16
9;5,18656E-14
9,5;1,29967E-11
10;9,02098E-10
10,5;3,27561E-09
11;2,61729E-08
11,5;2,49416E-07
12;9,65089E-07
12,5;3,94105E-06
13;1,61998E-05
13,5;5,86991E-05
14;0,000184348
14,5;0,000522535
15;0,00127582
15,5;0,00226292
16;0,00382621
16,5;0,0061264
17;0,0095818
17,5;0,0143201
18;0,0208431
18,5;0,0289762
19;0,038836
19,5;0,0517052
20;0,0663949
20,5;0,076372
21;0,0890341
21,5;0,0995793
22;0,112334
22,5;0,124079
23;0,136315
23,5;0,150243
24;0,161279
24,5;0,175919
25;0,184576
25,5;0,197369
26;0,00638559
26,5;0,00765104
27;0,00904528
27,5;0,0106481
28;0,0120798
28,5;0,0136615
29;0,0149557
29,5;0,0164075
30;0,0183419
30,5;0,0183789
31;0,018841
31,5;0,0183929
32;0,0180022
32,5;0,0170656
33;0,0149566
33,5;0,0124629
34;0,0104204
34,5;0,00868824
35;0,00157857
35,5;0
