5,5;0
6;2,990623E-40
6,5;4,90145E-33
7;4,54884E-27
7,5;4,01943E-22
8;8,40486E-18
8,5;9,55553E-15
9;4,6245E-13
9,5;8,29578E-11
10;4,24677E-09
10,5;1,25197E-08
11;8,39109E-08
11,5;6,85499E-07
12;2,29133E-06
12,5;8,21168E-06
13;3,02686E-05
13,5;9,91379E-05
14;0,000284946
14,5;0,000745971
15;0,00170067
15,5;0,00287806
16;0,00466848
16,5;0,00719347
17;0,0108691
17,5;0,0157189
18;0,022179
18,5;0,0299804
19;0,0391843
19,5;0,0509406
20;0,0640062
20,5;0,0725196
21;0,0834004
21,5;0,0921711
22;0,102882
22,5;0,112501
23;0,122221
23,5;0,133464
24;0,142257
24,5;0,154283
25;0,160466
25,5;0,170733
26;0,0110145
26,5;0,0128699
27;0,0147759
27,5;0,0168652
28;0,0186653
28,5;0,0206569
29;0,0223192
29,5;0,0240302
30;0,0261795
30,5;0,0264052
31;0,0271058
31,5;0,0267555
32;0,0263599
32,5;0,0255005
33;0,0237828
33,5;0,0218521
34;0,0199551
34,5;0,0168398
35;0,0121202
35,5;0,00597061
36;0,0025876
36,5;0
