5,5;0
6;1,14527E-34
6,5;2,37795E-28
7;3,76862E-23
7,5;7,27241E-19
8;4,06227E-15
8,5;1,8855E-12
9;4,45401E-11
9,5;3,88681E-09
10;1,11153E-07
10,5;2,38676E-07
11;1,1475E-06
11,5;6,75355E-06
12;1,75311E-05
12,5;4,95285E-05
13;0,000143333
13,5;0,000380125
14;0,000896228
14,5;0,00195165
15;0,00376082
15,5;0,00573603
16;0,00837794
16,5;0,0117085
17;0,0161032
17,5;0,0213363
18;0,0278024
18,5;0,034965
19;0,0426995
19,5;0,0518011
20;0,0611049
20,5;0,0660483
21;0,0720521
21,5;0,0759624
22;0,0804084
22,5;0,0840829
23;0,0876842
23,5;0,0916376
24;0,0933924
24,5;0,0955517
25;0,0968976
25,5;0,0977151
26;0,095438
26,5;0,0906693
27;0,0873964
27,5;0,0848841
28;0,0794007
28,5;0,0731726
29;0,0644513
29,5;0,0573422
30;0,0519669
30,5;0,0390128
31;0,0278514
31,5;0,0136583
32;0,00448107
32,5;0
