5,5;0
6;8,63058E-35
6,5;1,77352E-28
7;2,79274E-23
7,5;5,44149E-19
8;3,10454E-15
8,5;1,4721E-12
9;3,40695E-11
9,5;3,05425E-09
10;8,78198E-08
10,5;1,82231E-07
11;8,68901E-07
11,5;5,16574E-06
12;1,3193E-05
12,5;3,69657E-05
13;0,000107405
13,5;0,000285261
14;0,000675714
14,5;0,00148381
15;0,0028749
15,5;0,00439001
16;0,00644613
16,5;0,00905435
17;0,0125292
17,5;0,0167174
18;0,0219131
18,5;0,0276458
19;0,0338488
19,5;0,0413984
20;0,0491387
20,5;0,0532494
21;0,0585917
21,5;0,0620757
22;0,0664283
22,5;0,0698928
23;0,0734141
23,5;0,0774603
24;0,0797177
24,5;0,0833172
25;0,0845212
25,5;0,0870074
26;0,0866087
26,5;0,0858058
27;0,0851223
27,5;0,0849277
28;0,0819302
28,5;0,0790817
29;0,0738741
29,5;0,0699399
30;0,0683665
30,5;0,0595481
31;0,0533924
31,5;0,0448967
32;0,0382814
32,5;0,0307658
33;0,0201446
33,5;0,00986498
34;0,00320782
34,5;0
