5,5;0
6;2,920166E-40
6,5;6,67288E-33
7;8,14997E-27
7,5;8,30171E-22
8;1,84756E-17
8,5;2,01621E-14
9;1,17415E-12
9,5;1,9993E-10
10;1,02753E-08
10,5;3,77062E-08
11;2,74025E-07
11,5;2,16587E-06
12;8,08059E-06
12,5;3,07112E-05
13;0,000113925
13,5;0,000375527
14;0,00107004
14,5;0,00270265
15;0,00610535
15,5;0,010296
16;0,0163284
16,5;0,0246035
17;0,0361218
17,5;0,0502525
18;0,0682537
18,5;0,0901121
19;0,115526
19,5;0,141644
20;0,170321
20,5;0,187664
21;0,199921
21,5;0,210135
22;0,216612
22,5;0,220967
23;0,210069
23,5;0,00420747
24;0,00466332
24,5;0,00460418
25;0,00390349
25,5;0,00253646
26;0,000846862
26,5;0
