5,5;0
6;3,41906E-38
6,5;3,22537E-31
7;1,88924E-25
7,5;1,05791E-20
8;1,43948E-16
8,5;1,15177E-13
9;4,99097E-12
9,5;6,71734E-10
10;2,82707E-08
10,5;8,86768E-08
11;5,66973E-07
11,5;4,05363E-06
12;1,35894E-05
12,5;4,71935E-05
13;0,000161885
13,5;0,000498439
14;0,00133732
14,5;0,00321416
15;0,00691093
15,5;0,0113082
16;0,0174662
16,5;0,0256919
17;0,0369318
17,5;0,050499
18;0,0675982
18,5;0,0880125
19;0,111388
19,5;0,135816
20;0,162192
20,5;0,178376
21;0,191635
21,5;0,202523
22;0,210344
22,5;0,217451
23;0,215394
23,5;0,00852336
24;0,00957614
24,5;0,00999334
25;0,0102667
25,5;0,00955571
26;0,0084861
26,5;0,00669979
27;0,00208436
27,5;0
